ParteD/simulation/qsim/ParteD.msim.vcd
$comment
	File created using the following command:
		vcd file ParteD.msim.vcd -direction
$end
$date
	Wed Nov 06 17:50:49 2024
$end
$version
	ModelSim Version 10.1d
$end
$timescale
	1ps
$end
$scope module ParteDstate_vlg_vec_tst $end
$var reg 1 ! clock $end
$var reg 1 " reset $end
$var reg 1 # x $end
$var wire 1 $ z1 $end
$var wire 1 % z2 $end
$var wire 1 & z3 $end
$var wire 1 ' z4 $end
$var wire 1 ( sampler $end
$scope module i1 $end
$var wire 1 ) gnd $end
$var wire 1 * vcc $end
$var wire 1 + unknown $end
$var tri1 1 , devclrn $end
$var tri1 1 - devpor $end
$var tri1 1 . devoe $end
$var wire 1 / z1~output_o $end
$var wire 1 0 z2~output_o $end
$var wire 1 1 z3~output_o $end
$var wire 1 2 z4~output_o $end
$var wire 1 3 reset~input_o $end
$var wire 1 4 clock~input_o $end
$var wire 1 5 clock~inputclkctrl_outclk $end
$var wire 1 6 x~input_o $end
$var wire 1 7 fstate.state_bit_2~0_combout $end
$var wire 1 8 fstate.state_bit_2~1_combout $end
$var wire 1 9 fstate.state_bit_2~2_combout $end
$var wire 1 : fstate.state_bit_2~q $end
$var wire 1 ; z3~2_combout $end
$var wire 1 < fstate.state_bit_3~0_combout $end
$var wire 1 = fstate.state_bit_3~q $end
$var wire 1 > fstate.state_bit_1~3_combout $end
$var wire 1 ? fstate.state_bit_1~6_combout $end
$var wire 1 @ fstate.state_bit_1~q $end
$var wire 1 A fstate.state_bit_0~0_combout $end
$var wire 1 B fstate.state_bit_0~q $end
$var wire 1 C z1~0_combout $end
$var wire 1 D z2~0_combout $end
$var wire 1 E z3~0_combout $end
$var wire 1 F z3~1_combout $end
$var wire 1 G z4~0_combout $end
$var wire 1 H z4~1_combout $end
$upscope $end
$upscope $end
$enddefinitions $end
#0
$dumpvars
0!
0"
0#
0$
0%
0&
0'
x(
0)
1*
x+
1,
1-
1.
0/
00
01
02
03
04
05
06
07
08
09
0:
1;
0<
0=
0>
0?
0@
1A
0B
0C
0D
0E
0F
0G
0H
$end
#10000
1!
14
15
0(
1B
1E
1>
1D
1?
10
1%
1F
11
1&
#20000
0!
04
05
1(
#30000
1!
14
15
0(
1@
1G
0A
0;
1C
1/
1$
1H
12
1'
#40000
0!
04
05
1(
#50000
1!
14
15
0(
0B
0E
1;
18
0D
19
00
0%
0F
01
0&
#60000
0!
04
05
1(
#70000
1!
14
15
0(
1:
0G
0>
08
0C
0?
09
0/
0$
0H
02
0'
#80000
0!
04
05
1(
#90000
1!
14
15
0(
0@
0:
1A
#100000
0!
04
05
1(
#110000
1!
14
15
0(
1B
1E
1>
1D
1?
10
1%
1F
11
1&
#120000
0!
04
05
1(
#130000
1!
14
15
0(
1@
1G
0A
0;
1C
1/
1$
1H
12
1'
#140000
0!
04
05
1(
#150000
1!
14
15
0(
0B
0E
1;
18
0D
19
00
0%
0F
01
0&
#160000
0!
04
05
1(
#170000
1!
14
15
0(
1:
0G
0>
08
0C
0?
09
0/
0$
0H
02
0'
#180000
0!
04
05
1(
#190000
1!
14
15
0(
0@
0:
1A
#200000
0!
04
05
1(
#210000
1!
14
15
0(
1B
1E
1>
1D
1?
10
1%
1F
11
1&
#220000
0!
04
05
1(
#230000
1!
14
15
0(
1@
1G
0A
0;
1C
1/
1$
1H
12
1'
#240000
0!
04
05
1(
#250000
1!
14
15
0(
0B
0E
1;
18
0D
19
00
0%
0F
01
0&
#260000
0!
04
05
1(
#270000
1!
14
15
0(
1:
0G
0>
08
0C
0?
09
0/
0$
0H
02
0'
#280000
0!
04
05
1(
#290000
1!
14
15
0(
0@
0:
1A
#300000
0!
04
05
1(
#310000
1!
14
15
0(
1B
1E
1>
1D
1?
10
1%
1F
11
1&
#320000
0!
04
05
1(
#330000
1!
14
15
0(
1@
1G
0A
0;
1C
1/
1$
1H
12
1'
#340000
0!
04
05
1(
#350000
1!
14
15
0(
0B
0E
1;
18
0D
19
00
0%
0F
01
0&
#360000
0!
04
05
1(
#370000
1!
14
15
0(
1:
0G
0>
08
0C
0?
09
0/
0$
0H
02
0'
#380000
0!
04
05
1(
#390000
1!
14
15
0(
0@
0:
1A
#400000
0!
04
05
1(
#410000
1!
14
15
0(
1B
1E
1>
1D
1?
10
1%
1F
11
1&
#420000
0!
04
05
1(
#430000
1!
14
15
0(
1@
1G
0A
0;
1C
1/
1$
1H
12
1'
#440000
0!
04
05
1(
#450000
1!
14
15
0(
0B
0E
1;
18
0D
19
00
0%
0F
01
0&
#460000
0!
04
05
1(
#470000
1!
14
15
0(
1:
0G
0>
08
0C
0?
09
0/
0$
0H
02
0'
#480000
0!
04
05
1(
#490000
1!
14
15
0(
0@
0:
1A
#500000
0!
04
05
1(
#510000
1!
14
15
0(
1B
1E
1>
1D
1?
10
1%
1F
11
1&
#520000
0!
04
05
1(
#530000
1!
14
15
0(
1@
1G
0A
0;
1C
1/
1$
1H
12
1'
#540000
0!
04
05
1(
#550000
1!
14
15
0(
0B
0E
1;
18
0D
19
00
0%
0F
01
0&
#560000
0!
04
05
1(
#570000
1!
14
15
0(
1:
0G
0>
08
0C
0?
09
0/
0$
0H
02
0'
#580000
0!
04
05
1(
#590000
1!
14
15
0(
0@
0:
1A
#600000
0!
04
05
1(
#610000
1!
14
15
0(
1B
1E
1>
1D
1?
10
1%
1F
11
1&
#620000
0!
04
05
1(
#630000
1!
14
15
0(
1@
1G
0A
0;
1C
1/
1$
1H
12
1'
#640000
0!
04
05
1(
#650000
1!
14
15
0(
0B
0E
1;
18
0D
19
00
0%
0F
01
0&
#660000
0!
04
05
1(
#670000
1!
14
15
0(
1:
0G
0>
08
0C
0?
09
0/
0$
0H
02
0'
#680000
0!
04
05
1(
#690000
1!
14
15
0(
0@
0:
1A
#700000
0!
04
05
1(
#710000
1!
14
15
0(
1B
1E
1>
1D
1?
10
1%
1F
11
1&
#720000
0!
04
05
1(
#730000
1!
14
15
0(
1@
1G
0A
0;
1C
1/
1$
1H
12
1'
#740000
0!
04
05
1(
#750000
1!
14
15
0(
0B
0E
1;
18
0D
19
00
0%
0F
01
0&
#760000
0!
04
05
1(
#770000
1!
14
15
0(
1:
0G
0>
08
0C
0?
09
0/
0$
0H
02
0'
#780000
0!
04
05
1(
#790000
1!
14
15
0(
0@
0:
1A
#800000
0!
04
05
1(
#810000
1!
14
15
0(
1B
1E
1>
1D
1?
10
1%
1F
11
1&
#820000
0!
04
05
1(
#830000
1!
14
15
0(
1@
1G
0A
0;
1C
1/
1$
1H
12
1'
#840000
0!
04
05
1(
#850000
1!
14
15
0(
0B
0E
1;
18
0D
19
00
0%
0F
01
0&
#860000
0!
04
05
1(
#870000
1!
14
15
0(
1:
0G
0>
08
0C
0?
09
0/
0$
0H
02
0'
#880000
0!
04
05
1(
#890000
1!
14
15
0(
0@
0:
1A
#900000
0!
04
05
1(
#910000
1!
14
15
0(
1B
1E
1>
1D
1?
10
1%
1F
11
1&
#920000
0!
04
05
1(
#930000
1!
14
15
0(
1@
1G
0A
0;
1C
1/
1$
1H
12
1'
#940000
0!
04
05
1(
#950000
1!
14
15
0(
0B
0E
1;
18
0D
19
00
0%
0F
01
0&
#960000
0!
04
05
1(
#970000
1!
14
15
0(
1:
0G
0>
08
0C
0?
09
0/
0$
0H
02
0'
#980000
0!
04
05
1(
#990000
1!
14
15
0(
0@
0:
1A
